<?xml version="1.0" encoding="UTF-8"?>
<kml xmlns="http://www.opengis.net/kml/2.2">
  <Document>
    <name>Trick or Treating</name>
    <Style id="icon-1899-0288D1-nodesc-normal">
      <IconStyle>
        <color>ffd18802</color>
        <scale>1</scale>
        <Icon>
          <href>https://www.gstatic.com/mapspro/images/stock/503-wht-blank_maps.png</href>
        </Icon>
        <hotSpot x="32" xunits="pixels" y="64" yunits="insetPixels"/>
      </IconStyle>
      <LabelStyle>
        <scale>0</scale>
      </LabelStyle>
      <BalloonStyle>
        <text><![CDATA[<h3>$[name]</h3>]]></text>
      </BalloonStyle>
    </Style>
    <Style id="icon-1899-0288D1-nodesc-highlight">
      <IconStyle>
        <color>ffd18802</color>
        <scale>1</scale>
        <Icon>
          <href>https://www.gstatic.com/mapspro/images/stock/503-wht-blank_maps.png</href>
        </Icon>
        <hotSpot x="32" xunits="pixels" y="64" yunits="insetPixels"/>
      </IconStyle>
      <LabelStyle>
        <scale>1</scale>
      </LabelStyle>
      <BalloonStyle>
        <text><![CDATA[<h3>$[name]</h3>]]></text>
      </BalloonStyle>
    </Style>
    <StyleMap id="icon-1899-0288D1-nodesc">
      <Pair>
        <key>normal</key>
        <styleUrl>#icon-1899-0288D1-nodesc-normal</styleUrl>
      </Pair>
      <Pair>
        <key>highlight</key>
        <styleUrl>#icon-1899-0288D1-nodesc-highlight</styleUrl>
      </Pair>
    </StyleMap>
    <Placemark>
      <name>The Hotel at Oberlin</name>
      <styleUrl>#icon-1899-0288D1-nodesc</styleUrl>
      <Point>
        <coordinates>
          -82.2169074,41.2919624,0
        </coordinates>
      </Point>
    </Placemark>
    <Placemark>
      <name>Carnegie Building</name>
      <styleUrl>#icon-1899-0288D1-nodesc</styleUrl>
      <Point>
        <coordinates>
          -82.2194458,41.2947541,0
        </coordinates>
      </Point>
    </Placemark>
    <Placemark>
      <name>Bibbins Hall</name>
      <styleUrl>#icon-1899-0288D1-nodesc</styleUrl>
      <Point>
        <coordinates>
          -82.2194034,41.2913603,0
        </coordinates>
      </Point>
    </Placemark>
    <Placemark>
      <name>Mudd Center</name>
      <styleUrl>#icon-1899-0288D1-nodesc</styleUrl>
      <Point>
        <coordinates>
          -82.2228427,41.2931134,0
        </coordinates>
      </Point>
    </Placemark>
    <Placemark>
      <name>Peters Hall</name>
      <styleUrl>#icon-1899-0288D1-nodesc</styleUrl>
      <Point>
        <coordinates>
          -82.2205923,41.2929999,0
        </coordinates>
      </Point>
    </Placemark>
    <Placemark>
      <name>Rice Hall</name>
      <styleUrl>#icon-1899-0288D1-nodesc</styleUrl>
      <Point>
        <coordinates>
          -82.2210169,41.2921712,0
        </coordinates>
      </Point>
    </Placemark>
    <Placemark>
      <name>Science Center</name>
      <styleUrl>#icon-1899-0288D1-nodesc</styleUrl>
      <Point>
        <coordinates>
          -82.2218236,41.2946034,0
        </coordinates>
      </Point>
    </Placemark>
    <Placemark>
      <name>Service Building</name>
      <styleUrl>#icon-1899-0288D1-nodesc</styleUrl>
      <Point>
        <coordinates>
          -82.2236069,41.2935549,0
        </coordinates>
      </Point>
    </Placemark>
    <Placemark>
      <name>Stevenson Hall</name>
      <styleUrl>#icon-1899-0288D1-nodesc</styleUrl>
      <Point>
        <coordinates>
          -82.2193609,41.2957617,0
        </coordinates>
      </Point>
    </Placemark>
    <Placemark>
      <name>Wilder Hall</name>
      <styleUrl>#icon-1899-0288D1-nodesc</styleUrl>
      <Point>
        <coordinates>
          -82.2222482,41.2937747,0
        </coordinates>
      </Point>
    </Placemark>
    <Placemark>
      <name>The Oberlin Bookstore</name>
      <styleUrl>#icon-1899-0288D1-nodesc</styleUrl>
      <Point>
        <coordinates>
          -82.218684,41.291344,0
        </coordinates>
      </Point>
    </Placemark>
  </Document>
</kml>
